Modelo Room 8
…
Nueva Malla de Búsqueda

set.seed(123)

rf_grid_2 <- crossing(
  min_n = seq(114, 118, 2),
  mtry = c(4, 5),
  trees= seq(1270, 1570, 100)
)

rf_grid_2

## # A tibble: 24 × 3
##    min_n  mtry trees
##    <dbl> <dbl> <dbl>
##  1   114     4  1270
##  2   114     4  1370
##  3   114     4  1470
##  4   114     4  1570
##  5   114     5  1270
##  6   114     5  1370
##  7   114     5  1470
##  8   114     5  1570
##  9   116     4  1270
## 10   116     4  1370
## # ℹ 14 more rows
…
