Predicción de Churn usando Random Forest y GBM en R
…
Malla de búsqueda

set.seed(123)
rf_grid_2 <- crossing(
  min_n = seq(80, 91, 3),
  mtry = c(5, 7),
  trees= seq(500, 800, 100)
)
rf_grid_2

## # A tibble: 32 × 3
##    min_n  mtry trees
##    <dbl> <dbl> <dbl>
##  1    80     5   500
##  2    80     5   600
##  3    80     5   700
##  4    80     5   800
##  5    80     7   500
##  6    80     7   600
##  7    80     7   700
##  8    80     7   800
##  9    83     5   500
## 10    83     5   600
## # ℹ 22 more rows
…
